{
  "project_info": {
    "project_number": "1093591730221",
    "firebase_url": "https://camtesjorapp.firebaseio.com",
    "project_id": "camtesjorapp",
    "storage_bucket": "camtesjorapp.appspot.com"
  },
  "client": [
    {
      "client_info": {
        "mobilesdk_app_id": "1:1093591730221:android:55bd5688444a4745",
        "android_client_info": {
          "package_name": "kh.com.camtesjorapp"
        }
      },
      "oauth_client": [
        {
          "client_id": "1093591730221-ndrdmmttqigdt3i2f3dp5d1of1klnpch.apps.googleusercontent.com",
          "client_type": 1,
          "android_info": {
            "package_name": "kh.com.camtesjorapp",
            "certificate_hash": "b9312742f873357b4d6f7f5db0c467c72822f334"
          }
        },
        {
          "client_id": "1093591730221-knf49k80f7fjc868uv8qog6rv0r21gg7.apps.googleusercontent.com",
          "client_type": 3
        }
      ],
      "api_key": [
        {
          "current_key": "AIzaSyCX-Em4FV0IQfn6gyal8RFQIc2eycfJRd8"
        }
      ],
      "services": {
        "analytics_service": {
          "status": 1
        },
        "appinvite_service": {
          "status": 2,
          "other_platform_oauth_client": [
            {
              "client_id": "1093591730221-knf49k80f7fjc868uv8qog6rv0r21gg7.apps.googleusercontent.com",
              "client_type": 3
            }
          ]
        },
        "ads_service": {
          "status": 2
        }
      }
    }
  ],
  "configuration_version": "1"
}